{
    "page": "2",
    "per_page": 10,
    "total": 30,
    "total_pages": 3,
    "data": [
        {
            "id": 30,
            "timestamp": 1550541691500,
            "status": "STOPPED",
            "operatingParams": {
                "rotorSpeed": 0,
                "slack": 0,
                "rootThreshold": 48.97
            },
            "asset": {
                "id": 7,
                "alias": "Counter Blades"
            }
        },
        {
            "id": 31,
            "timestamp": 1561114683132,
            "status": "STOPPED",
            "operatingParams": {
                "rotorSpeed": 0,
                "slack": 0,
                "rootThreshold": 96.38
            },
            "asset": {
                "id": 6,
                "alias": "Penstock Guage"
            }
        },
        {
            "id": 33,
            "timestamp": 1548326871932,
            "status": "STOPPED",
            "operatingParams": {
                "rotorSpeed": 0,
                "slack": 0,
                "rootThreshold": 96.22
            },
            "asset": {
                "id": 1,
                "alias": "Axle Motor"
            },
            "parent": null
        },
        {
            "id": 34,
            "timestamp": 1564555119341,
            "status": "STOPPED",
            "operatingParams": {
                "rotorSpeed": 0,
                "slack": 0,
                "rootThreshold": 30.26
            },
            "asset": {
                "id": 4,
                "alias": "Secondary Rotor"
            },
            "parent": {
                "id": 2,
                "alias": "Main Rotor Shaft"
            }
        },
        {
            "id": 36,
            "timestamp": 1552381556864,
            "status": "STOPPED",
            "operatingParams": {
                "rotorSpeed": 0,
                "slack": 0,
                "rootThreshold": 45
            },
            "asset": {
                "id": 0,
                "alias": "Primary Rotor"
            },
            "parent": {
                "id": 2,
                "alias": "Main Rotor Shaft"
            }
        },
        {
            "id": 39,
            "timestamp": 1564946177173,
            "status": "STOPPED",
            "operatingParams": {
                "rotorSpeed": 0,
                "slack": 0,
                "rootThreshold": 24.96
            },
            "asset": {
                "id": 4,
                "alias": "Secondary Rotor"
            },
            "parent": {
                "id": 2,
                "alias": "Main Rotor Shaft"
            }
        },
        {
            "id": 41,
            "timestamp": 1549388074620,
            "status": "STOPPED",
            "operatingParams": {
                "rotorSpeed": 0,
                "slack": 0,
                "rootThreshold": 93.6
            },
            "asset": {
                "id": 2,
                "alias": "Main Rotor Shaft"
            }
        },
        {
            "id": 43,
            "timestamp": 1556642674532,
            "status": "STOPPED",
            "operatingParams": {
                "rotorSpeed": 0,
                "slack": 0,
                "rootThreshold": 47.02
            },
            "asset": {
                "id": 3,
                "alias": "Secondary Rotor Shaft"
            },
            "parent": {
                "id": 7,
                "alias": "Counter Blades"
            }
        },
        {
            "id": 50,
            "timestamp": 1559597269563,
            "status": "STOPPED",
            "operatingParams": {
                "rotorSpeed": 0,
                "slack": 0,
                "rootThreshold": 86.07
            },
            "asset": {
                "id": 2,
                "alias": "Main Rotor Shaft"
            }
        },
        {
            "id": 52,
            "timestamp": 1555273747500,
            "status": "STOPPED",
            "operatingParams": {
                "rotorSpeed": 0,
                "slack": 0,
                "rootThreshold": 79.73
            },
            "asset": {
                "id": 4,
                "alias": "Secondary Rotor"
            },
            "parent": {
                "id": 2,
                "alias": "Main Rotor Shaft"
            }
        }
    ]
}